Chapter 3 Exploratory Data Analysis | Housing prices Copenhagen
…
Unit area

  res_units %>%
    as_tibble() %>%
    filter(BEBO_ARL < 0)

#> # A tibble: 111 x 42
#>    VEJ_NAVN   HUS_NR Etagebetegn SIDE_DOERNR PostNr KomKode ESREjdNr Landsejerlavkode KomEjerlavKode MatrNr
#>    <chr>      <chr>  <ord>       <chr>        <int>   <int>    <int>            <int>          <int> <chr> 
#>  1 Haregade   1      st          ""            1320     101     8983          2000166             16 0     
#>  2 Ã…lekiste~ 221    st          ""            2720     101   686264          2000177             27 2114  
#>  3 Ã˜ster Vo~ 12     3           ""            1350     101   671909          2000166             16 664   
#>  4 Humlehaven 64     st          ""            2500     101   243540          2000180             30 2160  
#>  5 SÃ¦byholm~ 23     st          ""            2500     101   553027          2000180             30 1642  
#>  6 SolvÃ¦nget 10     st          ""            2100     101   514862          2000173             23 5552  
#>  7 Otto Buss~ 12     st          ""            2450     101   952940          2000174             24 0     
#>  8 Otto Buss~ 10     st          ""            2450     101   952940          2000174             24 0     
#>  9 Ã…gerupvej 58     st          ""            2700     101   678644          2000159              9 2336  
#> 10 Herlufsho~ 3      st          ""            2720     101   221202          2000177             27 10o   
#> # ... with 101 more rows, and 32 more variables: BYG_ANVEND_KODE <int>, OPFOERELSE_AAR <int>,
#> #   OMBYG_AAR <int>, YDERVAEG_KODE <int>, TAG_KODE <int>, BYG_ARL_SAML <int>, BYG_BOLIG_ARL_SAML <int>,
#> #   ERHV_ARL_SAML <int>, BYG_BEBYG_ARL <int>, ETAGER_ANT <int>, ENH_ANVEND_KODE <dbl>,
#> #   BOLIGTYPE_KODE <chr>, ENH_ARL_SAML <int>, BEBO_ARL <int>, ENH_ERHV_ARL <int>, VAERELSE_ANT <int>,
#> #   ENERGI_KODE <int>, VAER_ERHV_ANT <int>, VARMEINSTAL_KODE <int>, OPVARMNING_KODE <dbl>,
#> #   VARME_SUPPL_KODE <int>, EJD_VAERDI <int64>, GRUND_VAERDI <int64>, STUEHUS_VAERDI <int>,
#> #   KONTANT_KOEBESUM <int64>, OVERDRAGELSES_KODE <int>, SKOEDE_DATO <date>, geometry <POINT [m]>,
#> #   floor_level <ord>, type <fct>, int <lgl>, BBR_year <dbl>

  res_units %>%
    as_tibble() %>%
    filter(BEBO_ARL == 0)

#> # A tibble: 163 x 42
#>    VEJ_NAVN   HUS_NR Etagebetegn SIDE_DOERNR PostNr KomKode ESREjdNr Landsejerlavkode KomEjerlavKode MatrNr
#>    <chr>      <chr>  <ord>       <chr>        <int>   <int>    <int>            <int>          <int> <chr> 
#>  1 Olufsvej   6B     1           "th"          2100     101   420132          2000173             23 592   
#>  2 George Ma~ 13     st          ""            2450     101    19878          2000174             24 1493b 
#>  3 H.C. Ande~ 13     3           "tv"          1553     101    24474          2000179             29 254   
#>  4 Falkoner ~ 114A   st          "th"          2000     147    31076            10051              1 58a   
#>  5 Harrestru~ 3      st          ""            2500     101   210324          2000180             30 484   
#>  6 DybbÃ¸lsg~ 49     2           ""            1721     101   414337          2000174             24 526   
#>  7 Sankt Han~ 19     1           "tv"          2200     101   485404          2000173             23 4036  
#>  8 SakskÃ¸bi~ 8      st          ""            2500     101   481905          2000180             30 2681  
#>  9 SvanemÃ¸l~ 62     st          ""            2900     101   546918          2000173             23 4185  
#> 10 Borthigsg~ 17     st          ""            2100     101    62597          2000173             23 4904  
#> # ... with 153 more rows, and 32 more variables: BYG_ANVEND_KODE <int>, OPFOERELSE_AAR <int>,
#> #   OMBYG_AAR <int>, YDERVAEG_KODE <int>, TAG_KODE <int>, BYG_ARL_SAML <int>, BYG_BOLIG_ARL_SAML <int>,
#> #   ERHV_ARL_SAML <int>, BYG_BEBYG_ARL <int>, ETAGER_ANT <int>, ENH_ANVEND_KODE <dbl>,
#> #   BOLIGTYPE_KODE <chr>, ENH_ARL_SAML <int>, BEBO_ARL <int>, ENH_ERHV_ARL <int>, VAERELSE_ANT <int>,
#> #   ENERGI_KODE <int>, VAER_ERHV_ANT <int>, VARMEINSTAL_KODE <int>, OPVARMNING_KODE <dbl>,
#> #   VARME_SUPPL_KODE <int>, EJD_VAERDI <int64>, GRUND_VAERDI <int64>, STUEHUS_VAERDI <int>,
#> #   KONTANT_KOEBESUM <int64>, OVERDRAGELSES_KODE <int>, SKOEDE_DATO <date>, geometry <POINT [m]>,
#> #   floor_level <ord>, type <fct>, int <lgl>, BBR_year <dbl>

  res_units %>%
    as_tibble() %>%
    filter(BEBO_ARL > 1000) 

#> # A tibble: 79 x 42
#>    VEJ_NAVN   HUS_NR Etagebetegn SIDE_DOERNR PostNr KomKode ESREjdNr Landsejerlavkode KomEjerlavKode MatrNr
#>    <chr>      <chr>  <ord>       <chr>        <int>   <int>    <int>            <int>          <int> <chr> 
#>  1 Amalienbo~ 7      st          ""            1257     101    23028          2000167             17 148   
#>  2 Ottiliavej 3      1           ""            2500     101   173666          2000176             26 2093  
#>  3 Ottiliavej 1      1           ""            2500     101   173666          2000176             26 2093  
#>  4 Ã˜ster Fa~ 5A     st          ""            1353     101   669408          2000164             14 33    
#>  5 Amalienbo~ 8      st          ""            1257     101    23052          2000167             17 125   
#>  6 Frederici~ 2      st          ""            1310     101   151670          2000167             17 387   
#>  7 Gamle Car~ 13     st          "7"           1799     101   346480          2000176             26 2156  
#>  8 Amalienbo~ 2      st          ""            1257     101    23036          2000167             17 124   
#>  9 Amalienbo~ 7      st          ""            1257     101    23028          2000167             17 148   
#> 10 Ottiliavej 3      1           ""            2500     101   173666          2000176             26 2093  
#> # ... with 69 more rows, and 32 more variables: BYG_ANVEND_KODE <int>, OPFOERELSE_AAR <int>,
#> #   OMBYG_AAR <int>, YDERVAEG_KODE <int>, TAG_KODE <int>, BYG_ARL_SAML <int>, BYG_BOLIG_ARL_SAML <int>,
#> #   ERHV_ARL_SAML <int>, BYG_BEBYG_ARL <int>, ETAGER_ANT <int>, ENH_ANVEND_KODE <dbl>,
#> #   BOLIGTYPE_KODE <chr>, ENH_ARL_SAML <int>, BEBO_ARL <int>, ENH_ERHV_ARL <int>, VAERELSE_ANT <int>,
#> #   ENERGI_KODE <int>, VAER_ERHV_ANT <int>, VARMEINSTAL_KODE <int>, OPVARMNING_KODE <dbl>,
#> #   VARME_SUPPL_KODE <int>, EJD_VAERDI <int64>, GRUND_VAERDI <int64>, STUEHUS_VAERDI <int>,
#> #   KONTANT_KOEBESUM <int64>, OVERDRAGELSES_KODE <int>, SKOEDE_DATO <date>, geometry <POINT [m]>,
#> #   floor_level <ord>, type <fct>, int <lgl>, BBR_year <dbl>
…
