Chapter 3 Exploratory Data Analysis | Housing prices Copenhagen
…
Egentlig beboelse = Actual residence

Blandet erhverv og beboelse = Mixed occupations and housing

Enkeltværelse = Single room

E. Andet (bl.a. institutioner og erhverv) = Other (including institutions and professions)

  res_units %>%
    as_tibble() %>%
    group_by(BOLIGTYPE_KODE, type) %>%
    summarise(n = n())

# # A tibble: 24 x 3
# # Groups:   BOLIGTYPE_KODE [6]
#   BOLIGTYPE_KODE type                          n
#   <chr>          <fct>                     <int>
# 1 ""             Multi-storey                  7
# 2 "1"            College                   80371
# 3 "1"            Farmhouse                    16
# 4 "1"            Multi-storey            5372380
# 5 "1"            Residential institution      58
# 6 "1"            Second building            3102
# # ... with 18 more rows

Unit area

  res_units %>%
    as_tibble() %>%
    filter(BEBO_ARL < 0)

# # A tibble: 161 x 42
#   VEJ_NAVN  HUS_NR Etagebetegn SIDE_DOERNR PostNr KomKode ESREjdNr Landsejerlavkode KomEjerlavKode MatrNr BYG_ANVEND_KODE
#   <chr>     <chr>  <ord>       <chr>        <int>   <int>    <int>            <int>          <int> <chr>            <int>
# 1 Haregade  1      st          ""            1320     101     8983          2000166             16 0                    0
# 2 Ã…lekist~ 221    st          ""            2720     101   686264          2000177             27 2114               320
# 3 Ã˜ster V~ 12     3           ""            1350     101   671909          2000166             16 664                320
# 4 Humlehav~ 64     st          ""            2500     101   243540          2000180             30 2160               140
# 5 SÃ¦byhol~ 23     st          ""            2500     101   553027          2000180             30 1642               120
# 6 SolvÃ¦ng~ 10     st          ""            2100     101   514862          2000173             23 5552               120
# # ... with 155 more rows, and 31 more variables: OPFOERELSE_AAR <int>, OMBYG_AAR <int>, YDERVAEG_KODE <int>,
# #   TAG_KODE <int>, BYG_ARL_SAML <int>, BYG_BOLIG_ARL_SAML <int>, ERHV_ARL_SAML <int>, BYG_BEBYG_ARL <int>,
# #   ETAGER_ANT <int>, ENH_ANVEND_KODE <dbl>, BOLIGTYPE_KODE <chr>, ENH_ARL_SAML <int>, BEBO_ARL <int>,
# #   ENH_ERHV_ARL <int>, VAERELSE_ANT <int>, ENERGI_KODE <int>, VAER_ERHV_ANT <int>, VARMEINSTAL_KODE <int>,
# #   OPVARMNING_KODE <dbl>, VARME_SUPPL_KODE <int>, EJD_VAERDI <int64>, GRUND_VAERDI <int64>, STUEHUS_VAERDI <int>,
# #   KONTANT_KOEBESUM <int64>, OVERDRAGELSES_KODE <int>, SKOEDE_DATO <date>, geometry <POINT [m]>, floor_level <ord>,
# #   type <fct>, int <lgl>, BBR_year <dbl>

  res_units %>%
    as_tibble() %>%
    filter(BEBO_ARL == 0)

# # A tibble: 285 x 42
#   VEJ_NAVN  HUS_NR Etagebetegn SIDE_DOERNR PostNr KomKode ESREjdNr Landsejerlavkode KomEjerlavKode MatrNr BYG_ANVEND_KODE
#   <chr>     <chr>  <ord>       <chr>        <int>   <int>    <int>            <int>          <int> <chr>            <int>
# 1 Olufsvej  6B     1           "th"          2100     101   420132          2000173             23 592                220
# 2 Betty Na~ 53     6           "613"         2000     147   241801            10051              1 49f                160
# 3 Betty Na~ 53     7           "713"         2000     147   241801            10051              1 49f                160
# 4 George M~ 13     st          ""            2450     101    19878          2000174             24 1493b              140
# 5 H.C. And~ 13     3           "tv"          1553     101    24474          2000179             29 254                320
# 6 Falkoner~ 114A   st          "th"          2000     147    31076            10051              1 58a                140
# # ... with 279 more rows, and 31 more variables: OPFOERELSE_AAR <int>, OMBYG_AAR <int>, YDERVAEG_KODE <int>,
# #   TAG_KODE <int>, BYG_ARL_SAML <int>, BYG_BOLIG_ARL_SAML <int>, ERHV_ARL_SAML <int>, BYG_BEBYG_ARL <int>,
# #   ETAGER_ANT <int>, ENH_ANVEND_KODE <dbl>, BOLIGTYPE_KODE <chr>, ENH_ARL_SAML <int>, BEBO_ARL <int>,
# #   ENH_ERHV_ARL <int>, VAERELSE_ANT <int>, ENERGI_KODE <int>, VAER_ERHV_ANT <int>, VARMEINSTAL_KODE <int>,
# #   OPVARMNING_KODE <dbl>, VARME_SUPPL_KODE <int>, EJD_VAERDI <int64>, GRUND_VAERDI <int64>, STUEHUS_VAERDI <int>,
# #   KONTANT_KOEBESUM <int64>, OVERDRAGELSES_KODE <int>, SKOEDE_DATO <date>, geometry <POINT [m]>, floor_level <ord>,
# #   type <fct>, int <lgl>, BBR_year <dbl>

  res_units %>%
    as_tibble() %>%
    filter(BEBO_ARL > 1000) 

# # A tibble: 402 x 42
#   VEJ_NAVN  HUS_NR Etagebetegn SIDE_DOERNR PostNr KomKode ESREjdNr Landsejerlavkode KomEjerlavKode MatrNr BYG_ANVEND_KODE
#   <chr>     <chr>  <ord>       <chr>        <int>   <int>    <int>            <int>          <int> <chr>            <int>
# 1 Amalienb~ 7      st          ""            1257     101    23028          2000167             17 148                140
# 2 Amalienb~ 7      st          ""            1257     101    23028          2000167             17 148                140
# 3 Ottiliav~ 3      1           ""            2500     101   173666          2000176             26 2093               320
# 4 Rymarksv~ 1      st          ""            2900     101   474402          2000173             23 5929               420
# 5 Ottiliav~ 1      1           ""            2500     101   173666          2000176             26 2093               320
# 6 HillerÃ¸~ 64     st          ""            2200     101   390594          2000175             25 1348               160
# # ... with 396 more rows, and 31 more variables: OPFOERELSE_AAR <int>, OMBYG_AAR <int>, YDERVAEG_KODE <int>,
# #   TAG_KODE <int>, BYG_ARL_SAML <int>, BYG_BOLIG_ARL_SAML <int>, ERHV_ARL_SAML <int>, BYG_BEBYG_ARL <int>,
# #   ETAGER_ANT <int>, ENH_ANVEND_KODE <dbl>, BOLIGTYPE_KODE <chr>, ENH_ARL_SAML <int>, BEBO_ARL <int>,
# #   ENH_ERHV_ARL <int>, VAERELSE_ANT <int>, ENERGI_KODE <int>, VAER_ERHV_ANT <int>, VARMEINSTAL_KODE <int>,
# #   OPVARMNING_KODE <dbl>, VARME_SUPPL_KODE <int>, EJD_VAERDI <int64>, GRUND_VAERDI <int64>, STUEHUS_VAERDI <int>,
# #   KONTANT_KOEBESUM <int64>, OVERDRAGELSES_KODE <int>, SKOEDE_DATO <date>, geometry <POINT [m]>, floor_level <ord>,
# #   type <fct>, int <lgl>, BBR_year <dbl>
…
